{ 
    "data" : {
        "id" : "ID",
        "first_name" : "Manuel",
        "last_name" : "Serrano López",
        "email" : "email@mail.com",
        "phone" : "+353454345",
        "code_vitalaire" : "X-XXXXXXXX",
        "photo" : "https://mir-s3-cdn-cf.behance.net/project_modules/max_1200/6ab41162733715.5a99940063fdc.png"
    }
}